[
  {
    "relation": [
      "delegate_permission/common.handle_all_urls"
    ],
    "target": {
      "namespace": "android_app",
      "package_name": "io.clearenglish.app",
      "sha256_cert_fingerprints": [
        "8B:9C:FB:1A:67:75:77:0E:BF:AE:D2:F0:0E:64:C6:FF:C1:02:BA:C7:C9:00:4A:39:5C:4D:80:B8:41:68:57:D4"
      ]
    }
  }
]