<svg
    xmlns="http://www.w3.org/2000/svg" viewBox="0 0 24.85 24.85">
    <path d="M3.11 6.21v2.07h18.63V6.21zm0 7.25h18.63v-2.07H3.11zm0 5.18h18.63v-2.08H3.11z" fill="#fff" fill-rule="evenodd"/>
</svg>