<svg xmlns="http://www.w3.org/2000/svg" viewBox="0 0 36 36">
  <defs>
    <style>
      .cls-2{fill:#d1d1d1}
    </style>
  </defs>
  <g id="Слой_2" data-name="Слой 2">
    <g id="Слой_1-2" data-name="Слой 1">
      <circle cx="18" cy="18" r="18" fill="#f4f4f4"/>
      <path fill="#d1d1d1" d="M18 22.67c3.34 0 6-3.28 6-7.34S23.15 8 18 8s-6 3.28-6 7.34 2.66 7.33 6 7.33zM18 36a17.92 17.92 0 0 0 11.35-4c-.26-5.76-1.56-7.56-8-8.73A4.23 4.23 0 0 1 18 24.5a4.23 4.23 0 0 1-3.31-1.27c-6.48 1.17-7.78 3-8 8.73A17.92 17.92 0 0 0 18 36z"/>
    </g>
  </g>
</svg>
