<svg
    xmlns="http://www.w3.org/2000/svg" viewBox="0 0 12.23 14.35">
    <defs>
        <style>.cls-1{fill:#fff;}</style>
    </defs>
    <title>Ресурс 12</title>
    <g id="Слой_2" data-name="Слой 2">
        <g id="Слой_1-2" data-name="Слой 1">
            <path  d="M11.36,5.6,2.83.28A1.85,1.85,0,0,0,0,1.86V12.49a1.85,1.85,0,0,0,2.83,1.57l8.52-5.32A1.85,1.85,0,0,0,11.36,5.6Z"/>
        </g>
    </g>
</svg>